R for Reproducible Scientific Analysis
…
Pipes make the same code easier to read. The shortcut to insert the magrittr pipe operator %>% is Ctrl+Shift+M for Windows/Linux, and Cmd+Shift+M for Mac.

Using select()

If, for example, we wanted to move forward with only a few of the variables of our data, we could use the select() function. This will keep only the variables you select.

gapminder %>% select(year, country, gdpPercap)

## # A tibble: 1,704 x 3
##     year country     gdpPercap
##    <int> <fct>           <dbl>
##  1  1952 Afghanistan      779.
##  2  1957 Afghanistan      821.
##  3  1962 Afghanistan      853.
##  4  1967 Afghanistan      836.
##  5  1972 Afghanistan      740.
##  6  1977 Afghanistan      786.
##  7  1982 Afghanistan      978.
##  8  1987 Afghanistan      852.
##  9  1992 Afghanistan      649.
## 10  1997 Afghanistan      635.
## #  with 1,694 more rows

year_country_gdp <- gapminder %>% 
  select(year, country, gdpPercap)
year_country_gdp

## # A tibble: 1,704 x 3
##     year country     gdpPercap
##    <int> <fct>           <dbl>
##  1  1952 Afghanistan      779.
##  2  1957 Afghanistan      821.
##  3  1962 Afghanistan      853.
##  4  1967 Afghanistan      836.
##  5  1972 Afghanistan      740.
##  6  1977 Afghanistan      786.
##  7  1982 Afghanistan      978.
##  8  1987 Afghanistan      852.
##  9  1992 Afghanistan      649.
## 10  1997 Afghanistan      635.
## #  with 1,694 more rows
…
If we now wanted to move forward with the above, but only with European countries, we can combine select() and filter():

year_country_gdp_euro <- gapminder %>% 
  filter(continent == "Europe") %>%
  select(year, country, gdpPercap)
year_country_gdp_euro

## # A tibble: 360 x 3
##     year country gdpPercap
##    <int> <fct>       <dbl>
##  1  1952 Albania     1601.
##  2  1957 Albania     1942.
##  3  1962 Albania     2313.
##  4  1967 Albania     2760.
##  5  1972 Albania     3313.
##  6  1977 Albania     3533.
##  7  1982 Albania     3631.
##  8  1987 Albania     3739.
##  9  1992 Albania     2497.
## 10  1997 Albania     3193.
## #  with 350 more rows
…
As with last time, first we pass the gapminder dataframe to the filter() function, then we pass the filtered version of the gapminder dataframe to the select() function. Note: The order of operations is very important in this case. If we used select() first, filter() would not be able to find the variable continent since we would have removed it in the previous step.

Using group_by()

Now, we were supposed to be reducing the error-prone repetitiveness of what can be done with base R, but up to now we havent done that since we would have to repeat the above for each continent. Instead of filter(), which will only pass observations that meet your criteria (in the above: continent == "Europe"), we can use group_by(), which will essentially use every unique criteria that you could have used in filter.

gapminder

## # A tibble: 1,704 x 6
##    country     continent  year lifeExp      pop gdpPercap
##    <fct>       <fct>     <int>   <dbl>    <int>     <dbl>
##  1 Afghanistan Asia       1952    28.8  8425333      779.
##  2 Afghanistan Asia       1957    30.3  9240934      821.
##  3 Afghanistan Asia       1962    32.0 10267083      853.
##  4 Afghanistan Asia       1967    34.0 11537966      836.
##  5 Afghanistan Asia       1972    36.1 13079460      740.
##  6 Afghanistan Asia       1977    38.4 14880372      786.
##  7 Afghanistan Asia       1982    39.9 12881816      978.
##  8 Afghanistan Asia       1987    40.8 13867957      852.
##  9 Afghanistan Asia       1992    41.7 16317921      649.
## 10 Afghanistan Asia       1997    41.8 22227415      635.
## #  with 1,694 more rows

gapminder %>% 
  group_by(continent)

## # A tibble: 1,704 x 6
## # Groups:   continent [5]
##    country     continent  year lifeExp      pop gdpPercap
##    <fct>       <fct>     <int>   <dbl>    <int>     <dbl>
##  1 Afghanistan Asia       1952    28.8  8425333      779.
##  2 Afghanistan Asia       1957    30.3  9240934      821.
##  3 Afghanistan Asia       1962    32.0 10267083      853.
##  4 Afghanistan Asia       1967    34.0 11537966      836.
##  5 Afghanistan Asia       1972    36.1 13079460      740.
##  6 Afghanistan Asia       1977    38.4 14880372      786.
##  7 Afghanistan Asia       1982    39.9 12881816      978.
##  8 Afghanistan Asia       1987    40.8 13867957      852.
##  9 Afghanistan Asia       1992    41.7 16317921      649.
## 10 Afghanistan Asia       1997    41.8 22227415      635.
## #  with 1,694 more rows
…
## # A tibble: 2 x 2
##   country     mean_lifeExp
##   <fct>              <dbl>
## 1 Afghanistan         37.5
## 2 Japan               74.8

More grouping

The function group_by() allows us to group by multiple variables. Lets group by year and continent.

gapminder %>% 
  group_by(continent, year) %>%
  summarize(mean_gdpPercap = mean(gdpPercap))

## # A tibble: 60 x 3
## # Groups:   continent [5]
##    continent  year mean_gdpPercap
##    <fct>     <int>          <dbl>
##  1 Africa     1952          1253.
##  2 Africa     1957          1385.
##  3 Africa     1962          1598.
##  4 Africa     1967          2050.
##  5 Africa     1972          2340.
##  6 Africa     1977          2586.
##  7 Africa     1982          2482.
##  8 Africa     1987          2283.
##  9 Africa     1992          2282.
## 10 Africa     1997          2379.
## #  with 50 more rows

That is already quite powerful, but it gets even better! Youre not limited to defining one new variable in summarize().

gapminder %>% 
  group_by(continent, year) %>%
  summarize(mean_gdpPercap = mean(gdpPercap),
            sd_gdpPercap = sd(gdpPercap),
            mean_pop = mean(pop),
            sd_pop = sd(pop))

## # A tibble: 60 x 6
## # Groups:   continent [5]
##    continent  year mean_gdpPercap sd_gdpPercap  mean_pop    sd_pop
##    <fct>     <int>          <dbl>        <dbl>     <dbl>     <dbl>
##  1 Africa     1952          1253.         983.  4570010.  6317450.
##  2 Africa     1957          1385.        1135.  5093033.  7076042.
##  3 Africa     1962          1598.        1462.  5702247.  7957545.
##  4 Africa     1967          2050.        2848.  6447875.  8985505.
##  5 Africa     1972          2340.        3287.  7305376. 10130833.
##  6 Africa     1977          2586.        4142.  8328097. 11585184.
##  7 Africa     1982          2482.        3243.  9602857. 13456243.
##  8 Africa     1987          2283.        2567. 11054502. 15277484.
##  9 Africa     1992          2282.        2644. 12674645. 17562719.
## 10 Africa     1997          2379.        2821. 14304480. 19873013.
## #  with 50 more rows

Using mutate()

We can also create new variables prior to (or even after) summarizing information using mutate().

gapminder %>% 
  mutate(gdp_billion = gdpPercap * pop / 10^9)

## # A tibble: 1,704 x 7
##    country     continent  year lifeExp      pop gdpPercap gdp_billion
##    <fct>       <fct>     <int>   <dbl>    <int>     <dbl>       <dbl>
##  1 Afghanistan Asia       1952    28.8  8425333      779.        6.57
##  2 Afghanistan Asia       1957    30.3  9240934      821.        7.59
##  3 Afghanistan Asia       1962    32.0 10267083      853.        8.76
##  4 Afghanistan Asia       1967    34.0 11537966      836.        9.65
##  5 Afghanistan Asia       1972    36.1 13079460      740.        9.68
##  6 Afghanistan Asia       1977    38.4 14880372      786.       11.7 
##  7 Afghanistan Asia       1982    39.9 12881816      978.       12.6 
##  8 Afghanistan Asia       1987    40.8 13867957      852.       11.8 
##  9 Afghanistan Asia       1992    41.7 16317921      649.       10.6 
## 10 Afghanistan Asia       1997    41.8 22227415      635.       14.1 
## #  with 1,694 more rows

gapminder %>% 
  mutate(gdp_billion = gdpPercap * pop / 10^9) %>%
  group_by(continent, year) %>%
  summarize(mean_gdpPercap = mean(gdpPercap),
            sd_gdpPercap = sd(gdpPercap),
            mean_pop = mean(pop),
            sd_pop = sd(pop),
            mean_gdp_billion = mean(gdp_billion),
            sd_gdp_billion = sd(gdp_billion))

## # A tibble: 60 x 8
## # Groups:   continent [5]
##    continent  year mean_gdpPercap sd_gdpPercap mean_pop sd_pop
##    <fct>     <int>          <dbl>        <dbl>    <dbl>  <dbl>
##  1 Africa     1952          1253.         983.   4.57e6 6.32e6
##  2 Africa     1957          1385.        1135.   5.09e6 7.08e6
##  3 Africa     1962          1598.        1462.   5.70e6 7.96e6
##  4 Africa     1967          2050.        2848.   6.45e6 8.99e6
##  5 Africa     1972          2340.        3287.   7.31e6 1.01e7
##  6 Africa     1977          2586.        4142.   8.33e6 1.16e7
##  7 Africa     1982          2482.        3243.   9.60e6 1.35e7
##  8 Africa     1987          2283.        2567.   1.11e7 1.53e7
##  9 Africa     1992          2282.        2644.   1.27e7 1.76e7
## 10 Africa     1997          2379.        2821.   1.43e7 1.99e7
## #  with 50 more rows, and 2 more variables: mean_gdp_billion <dbl>,
## #   sd_gdp_billion <dbl>
…
Using dplyr and ggplot2 to visualize average global life expectancy

We will now demonstrate how to use functions from both dplyrand ggplot2 to visualize the average life expectancy of countries that are part of the gapminder data set.

First, we need to calculate the average life expectancy for each country using the summarize() function:

gapminder_country_summary <- gapminder %>% 
  group_by(country) %>%
  summarize(mean_lifeExp = mean(lifeExp))
gapminder_country_summary

## # A tibble: 142 x 2
##    country     mean_lifeExp
##    <fct>              <dbl>
##  1 Afghanistan         37.5
##  2 Albania             68.4
##  3 Algeria             59.0
##  4 Angola              37.9
##  5 Argentina           69.1
##  6 Australia           74.7
##  7 Austria             73.1
##  8 Bahrain             65.6
##  9 Bangladesh          49.8
## 10 Belgium             73.6
## #  with 132 more rows
…
