R for Reproducible Scientific Analysis
…
tidyexplain-wide-long

These data formats mainly affect readability. For humans, the wide format is often more intuitive since we can often see more of the data on the screen due to its shape. However, the long format is more machine readable and is closer to the formatting of databases. The ID variables in our dataframes are similar to the fields in a database and observed variables are like the database values.This tutorial will help you efficiently transform your data regardless of original format.

Getting started

First, lets look at the structure of our original gapminder dataframe:

gapminder

## # A tibble: 1,704 x 6
##    country     continent  year lifeExp      pop gdpPercap
##    <fct>       <fct>     <int>   <dbl>    <int>     <dbl>
##  1 Afghanistan Asia       1952    28.8  8425333      779.
##  2 Afghanistan Asia       1957    30.3  9240934      821.
##  3 Afghanistan Asia       1962    32.0 10267083      853.
##  4 Afghanistan Asia       1967    34.0 11537966      836.
##  5 Afghanistan Asia       1972    36.1 13079460      740.
##  6 Afghanistan Asia       1977    38.4 14880372      786.
##  7 Afghanistan Asia       1982    39.9 12881816      978.
##  8 Afghanistan Asia       1987    40.8 13867957      852.
##  9 Afghanistan Asia       1992    41.7 16317921      649.
## 10 Afghanistan Asia       1997    41.8 22227415      635.
## #  with 1,694 more rows
…
While using many of the functions in R, which are often vector-based, you usually do not want to do mathematical operations on values in different units. For example, using the purely long format, a single mean for all of the values of population, life expectancy, and GDP would not be meaningful since it would return the mean of values with 3 incompatible units. The solution is that we first manipulate the data either by grouping (see the lesson on dplyr), or we change the structure of the dataframe. Note: Some plotting functions in R actually work better in the long data format.

Reading in a data set caught in a wild with readxl

Until now, weve been using the nicely formatted original gapminder dataset, but real data (e.g. our own research data) is rarely so well organized.

We will now download two additional files from the gapminder website. Go to Data and search for Children per woman (total fertility). Download the Excel file (indicator undata total_fertility.xlsx) into a new sub-folder in your Rstudio project called data_raw.

To read in the new Excel file and take a look at its structure, we need to load a additional package. readxl is part of the tidyverse package collection, but needs to be called independently.

library(readxl)
raw_fert <- read_excel(path = "data_raw/children_per_woman_total_fertility.xlsx")
raw_fert

## # A tibble: 184 x 220
##    country `1800` `1801` `1802` `1803` `1804` `1805` `1806` `1807` `1808`
##    <chr>    <dbl>  <dbl>  <dbl>  <dbl>  <dbl>  <dbl>  <dbl>  <dbl>  <dbl>
##  1 Afghan   7      7      7      7      7      7      7      7      7   
##  2 Albania   4.6    4.6    4.6    4.6    4.6    4.6    4.6    4.6    4.6 
##  3 Algeria   6.99   6.99   6.99   6.99   6.99   6.99   6.99   6.99   6.99
##  4 Angola    6.93   6.93   6.93   6.93   6.93   6.93   6.93   6.94   6.94
##  5 Antigu   5      5      4.99   4.99   4.99   4.98   4.98   4.97   4.97
##  6 Argent   6.8    6.8    6.8    6.8    6.8    6.8    6.8    6.8    6.8 
##  7 Armenia   7.8    7.8    7.81   7.81   7.81   7.82   7.82   7.82   7.83
##  8 Austra   6.5    6.48   6.46   6.44   6.42   6.4    6.38   6.36   6.34
##  9 Austria   5.1    5.1    5.1    5.1    5.1    5.1    5.1    5.1    5.1 
## 10 Azerba   8.1    8.1    8.1    8.1    8.1    8.1    8.1    8.1    8.1 
## #  with 174 more rows, and 210 more variables: `1809` <dbl>,
## #   `1810` <dbl>, `1811` <dbl>, `1812` <dbl>, `1813` <dbl>, `1814` <dbl>,
## #   `1815` <dbl>, `1816` <dbl>, `1817` <dbl>, `1818` <dbl>, `1819` <dbl>,
## #   `1820` <dbl>, `1821` <dbl>, `1822` <dbl>, `1823` <dbl>, `1824` <dbl>,
## #   `1825` <dbl>, `1826` <dbl>, `1827` <dbl>, `1828` <dbl>, `1829` <dbl>,
## #   `1830` <dbl>, `1831` <dbl>, `1832` <dbl>, `1833` <dbl>, `1834` <dbl>,
## #   `1835` <dbl>, `1836` <dbl>, `1837` <dbl>, `1838` <dbl>, `1839` <dbl>,
## #   `1840` <dbl>, `1841` <dbl>, `1842` <dbl>, `1843` <dbl>, `1844` <dbl>,
## #   `1845` <dbl>, `1846` <dbl>, `1847` <dbl>, `1848` <dbl>, `1849` <dbl>,
…
In this spreadsheet, you might observe that values of total fetility are spread by year (horizontally) for every country(vertically). What we ideally need is to have country and year as identifiers and fertility as a single observational (value) column.

From wide to long format with pivot_longer()

The first step towards getting our nice intermediate data format is to first convert from the wide to the long format. The tidyr newly added function pivot_longer() will gather your observations into a single variable.

fert <- raw_fert %>% 
  pivot_longer(-country, names_to = "year", values_to = "fert") %>% 
  mutate(year = as.integer(year))
fert

## # A tibble: 40,296 x 3
##    country      year  fert
##    <chr>       <int> <dbl>
##  1 Afghanistan  1800     7
##  2 Afghanistan  1801     7
##  3 Afghanistan  1802     7
##  4 Afghanistan  1803     7
##  5 Afghanistan  1804     7
##  6 Afghanistan  1805     7
##  7 Afghanistan  1806     7
##  8 Afghanistan  1807     7
##  9 Afghanistan  1808     7
## 10 Afghanistan  1809     7
## #  with 40,286 more rows
…
## # A tibble: 1 x 1
##   mean_infantMort
##             <dbl>
## 1            2.94

Using join() to add new information to existing data sets

In a situation like this, we would ideally incorporate our newly harvested data into the existing `gapminder data set.dplyroffers a powerful functional family calledjoin(), which helps in merging two data sets on conditional parameters. The functionality of the differentjoin()` functions is best explained by trying them out:

gapminder

## # A tibble: 1,704 x 6
##    country     continent  year lifeExp      pop gdpPercap
##    <fct>       <fct>     <int>   <dbl>    <int>     <dbl>
##  1 Afghanistan Asia       1952    28.8  8425333      779.
##  2 Afghanistan Asia       1957    30.3  9240934      821.
##  3 Afghanistan Asia       1962    32.0 10267083      853.
##  4 Afghanistan Asia       1967    34.0 11537966      836.
##  5 Afghanistan Asia       1972    36.1 13079460      740.
##  6 Afghanistan Asia       1977    38.4 14880372      786.
##  7 Afghanistan Asia       1982    39.9 12881816      978.
##  8 Afghanistan Asia       1987    40.8 13867957      852.
##  9 Afghanistan Asia       1992    41.7 16317921      649.
## 10 Afghanistan Asia       1997    41.8 22227415      635.
## #  with 1,694 more rows

gapminder %>% 
  inner_join(fert, by = c("year", "country"))

## Warning: Column `country` joining factor and character vector, coercing
## into character vector

## # A tibble: 1,608 x 7
##    country     continent  year lifeExp      pop gdpPercap  fert
##    <chr>       <fct>     <int>   <dbl>    <int>     <dbl> <dbl>
##  1 Afghanistan Asia       1952    28.8  8425333      779.  7.55
##  2 Afghanistan Asia       1957    30.3  9240934      821.  7.49
##  3 Afghanistan Asia       1962    32.0 10267083      853.  7.45
##  4 Afghanistan Asia       1967    34.0 11537966      836.  7.45
##  5 Afghanistan Asia       1972    36.1 13079460      740.  7.45
##  6 Afghanistan Asia       1977    38.4 14880372      786.  7.45
##  7 Afghanistan Asia       1982    39.9 12881816      978.  7.45
##  8 Afghanistan Asia       1987    40.8 13867957      852.  7.46
##  9 Afghanistan Asia       1992    41.7 16317921      649.  7.5 
## 10 Afghanistan Asia       1997    41.8 22227415      635.  7.64
## #  with 1,598 more rows

gapminder %>% 
  left_join(fert, by = c("year", "country"))

## Warning: Column `country` joining factor and character vector, coercing
## into character vector

## # A tibble: 1,704 x 7
##    country     continent  year lifeExp      pop gdpPercap  fert
##    <chr>       <fct>     <int>   <dbl>    <int>     <dbl> <dbl>
##  1 Afghanistan Asia       1952    28.8  8425333      779.  7.55
##  2 Afghanistan Asia       1957    30.3  9240934      821.  7.49
##  3 Afghanistan Asia       1962    32.0 10267083      853.  7.45
##  4 Afghanistan Asia       1967    34.0 11537966      836.  7.45
##  5 Afghanistan Asia       1972    36.1 13079460      740.  7.45
##  6 Afghanistan Asia       1977    38.4 14880372      786.  7.45
##  7 Afghanistan Asia       1982    39.9 12881816      978.  7.45
##  8 Afghanistan Asia       1987    40.8 13867957      852.  7.46
##  9 Afghanistan Asia       1992    41.7 16317921      649.  7.5 
## 10 Afghanistan Asia       1997    41.8 22227415      635.  7.64
## #  with 1,694 more rows

gapminder %>% 
  right_join(fert, by = c("year", "country"))

## Warning: Column `country` joining factor and character vector, coercing
## into character vector

## # A tibble: 40,296 x 7
##    country     continent  year lifeExp   pop gdpPercap  fert
##    <chr>       <fct>     <int>   <dbl> <int>     <dbl> <dbl>
##  1 Afghanistan <NA>       1800      NA    NA        NA     7
##  2 Afghanistan <NA>       1801      NA    NA        NA     7
##  3 Afghanistan <NA>       1802      NA    NA        NA     7
##  4 Afghanistan <NA>       1803      NA    NA        NA     7
##  5 Afghanistan <NA>       1804      NA    NA        NA     7
##  6 Afghanistan <NA>       1805      NA    NA        NA     7
##  7 Afghanistan <NA>       1806      NA    NA        NA     7
##  8 Afghanistan <NA>       1807      NA    NA        NA     7
##  9 Afghanistan <NA>       1808      NA    NA        NA     7
## 10 Afghanistan <NA>       1809      NA    NA        NA     7
## #  with 40,286 more rows

gapminder %>% 
  full_join(fert, by = c("year", "country"))

## Warning: Column `country` joining factor and character vector, coercing
## into character vector

## # A tibble: 40,392 x 7
##    country     continent  year lifeExp      pop gdpPercap  fert
##    <chr>       <fct>     <int>   <dbl>    <int>     <dbl> <dbl>
##  1 Afghanistan Asia       1952    28.8  8425333      779.  7.55
##  2 Afghanistan Asia       1957    30.3  9240934      821.  7.49
##  3 Afghanistan Asia       1962    32.0 10267083      853.  7.45
##  4 Afghanistan Asia       1967    34.0 11537966      836.  7.45
##  5 Afghanistan Asia       1972    36.1 13079460      740.  7.45
##  6 Afghanistan Asia       1977    38.4 14880372      786.  7.45
##  7 Afghanistan Asia       1982    39.9 12881816      978.  7.45
##  8 Afghanistan Asia       1987    40.8 13867957      852.  7.46
##  9 Afghanistan Asia       1992    41.7 16317921      649.  7.5 
## 10 Afghanistan Asia       1997    41.8 22227415      635.  7.64
## #  with 40,382 more rows
…
Tidyexplain is a repository of animations illustrating among other things also various types of joins.

We want to stick as close to the original gapminder data set as possible, so left_join() is the option of choice

gapminder_plus <- gapminder %>% 
  left_join(fert, by = c("year", "country"))

## Warning: Column `country` joining factor and character vector, coercing
## into character vector

gapminder_plus

## # A tibble: 1,704 x 7
##    country     continent  year lifeExp      pop gdpPercap  fert
##    <chr>       <fct>     <int>   <dbl>    <int>     <dbl> <dbl>
##  1 Afghanistan Asia       1952    28.8  8425333      779.  7.55
##  2 Afghanistan Asia       1957    30.3  9240934      821.  7.49
##  3 Afghanistan Asia       1962    32.0 10267083      853.  7.45
##  4 Afghanistan Asia       1967    34.0 11537966      836.  7.45
##  5 Afghanistan Asia       1972    36.1 13079460      740.  7.45
##  6 Afghanistan Asia       1977    38.4 14880372      786.  7.45
##  7 Afghanistan Asia       1982    39.9 12881816      978.  7.45
##  8 Afghanistan Asia       1987    40.8 13867957      852.  7.46
##  9 Afghanistan Asia       1992    41.7 16317921      649.  7.5 
## 10 Afghanistan Asia       1997    41.8 22227415      635.  7.64
## #  with 1,694 more rows
…
